module mochi

go 1.20

require (
	github.com/go-chi/chi/v5 v5.0.10
	github.com/prometheus/client_golang v1.17.0
	github.com/sirupsen/logrus v1.9.3
	github.com/spf13/viper v1.17.0
	go.opentelemetry.io/otel v1.19.0
	go.opentelemetry.io/otel/exporters/jaeger v1.17.0
	go.opentelemetry.io/otel/exporters/otlp/otlptrace/otlptracehttp v1.19.0
	go.opentelemetry.io/otel/exporters/stdout/stdouttrace v1.19.0
	go.opentelemetry.io/otel/exporters/zipkin v1.19.0
	go.opentelemetry.io/otel/sdk v1.19.0
	go.opentelemetry.io/otel/trace v1.19.0
)

require (
	github.com/cenkalti/backoff/v4 v4.2.1 // indirect
	github.com/grpc-ecosystem/grpc-gateway/v2 v2.16.0 // indirect
	go.opentelemetry.io/proto/otlp v1.0.0 // indirect
	golang.org/x/net v0.16.0 // indirect
	google.golang.org/genproto/googleapis/api v0.0.0-20230913181813-007df8e322eb // indirect
	google.golang.org/genproto/googleapis/rpc v0.0.0-20230920204549-e6e6cdab5c13 // indirect
	google.golang.org/grpc v1.58.2 // indirect
)

require (
	github.com/beorn7/perks v1.0.1 // indirect
	github.com/cespare/xxhash/v2 v2.2.0 // indirect
	github.com/fsnotify/fsnotify v1.6.0 // indirect
	github.com/go-logr/logr v1.2.4 // indirect
	github.com/go-logr/stdr v1.2.2 // indirect
	github.com/golang/protobuf v1.5.3 // indirect
	github.com/hashicorp/hcl v1.0.0 // indirect
	github.com/magiconair/properties v1.8.7 // indirect
	github.com/matttproud/golang_protobuf_extensions v1.0.4 // indirect
	github.com/mitchellh/mapstructure v1.5.0 // indirect
	github.com/openzipkin/zipkin-go v0.4.2 // indirect
	github.com/pelletier/go-toml/v2 v2.1.0 // indirect
	github.com/prometheus/client_model v0.5.0 // indirect
	github.com/prometheus/common v0.44.0 // indirect
	github.com/prometheus/procfs v0.12.0 // indirect
	github.com/sagikazarmark/locafero v0.3.0 // indirect
	github.com/sagikazarmark/slog-shim v0.1.0 // indirect
	github.com/sourcegraph/conc v0.3.0 // indirect
	github.com/spf13/afero v1.10.0 // indirect
	github.com/spf13/cast v1.5.1 // indirect
	github.com/spf13/pflag v1.0.5 // indirect
	github.com/subosito/gotenv v1.6.0 // indirect
	go.opentelemetry.io/otel/exporters/otlp/otlptrace v1.19.0 // indirect
	go.opentelemetry.io/otel/metric v1.19.0 // indirect
	go.uber.org/multierr v1.11.0 // indirect
	golang.org/x/exp v0.0.0-20231006140011-7918f672742d // indirect
	golang.org/x/sys v0.13.0 // indirect
	golang.org/x/text v0.13.0 // indirect
	google.golang.org/protobuf v1.31.0 // indirect
	gopkg.in/ini.v1 v1.67.0 // indirect
	gopkg.in/yaml.v3 v3.0.1 // indirect
)
